module gitlab.com/fieldkit/cloud/server

go 1.22

// toolchain go1.22.0

require (
	github.com/DataDog/datadog-go/v5 v5.1.1
	github.com/Nerzal/gocloak/v7 v7.11.0
	github.com/O-C-R/singlepage v0.0.0-20170327184421-bbbe2159ecec
	github.com/aws/aws-sdk-go v1.30.12
	github.com/bxcodec/faker/v3 v3.3.1
	github.com/coreos/go-oidc v2.2.1+incompatible
	github.com/crewjam/saml v0.4.2
	github.com/davecgh/go-spew v1.1.1
	github.com/dgrijalva/jwt-go v3.2.0+incompatible
	github.com/disintegration/imageorient v0.0.0-20180920195336-8147d86e83ec
	github.com/elgs/gojq v0.0.0-20201120033525-b5293fef2759
	github.com/goadesign/goa v1.4.0
	github.com/golang/protobuf v1.5.2
	github.com/google/uuid v1.3.0
	github.com/gorilla/mux v1.8.0
	github.com/gorilla/websocket v1.4.2
	github.com/h2non/filetype v1.0.10
	github.com/hashicorp/go-multierror v1.1.0
	github.com/iancoleman/strcase v0.0.0-20190422225806-e506e3ef7365
	github.com/itchyny/gojq v0.12.5
	github.com/jackc/pgx/v5 v5.0.0
	github.com/jmoiron/sqlx v1.2.0
	github.com/kelseyhightower/envconfig v0.0.0-20170206223400-8bf4bbfc795e
	github.com/kinbiko/jsonassert v1.0.1
	github.com/lib/pq v1.10.7
	github.com/llgcode/draw2d v0.0.0-20161104081029-1286d3b2030a
	github.com/lucasb-eyer/go-colorful v0.0.0-20170223221042-c900de9dbbc7
	github.com/matoous/go-nanoid/v2 v2.0.0
	github.com/montanaflynn/stats v0.5.0
	github.com/muesli/smartcrop v0.3.0
	github.com/paulmach/go.geo v0.0.0-20170321183534-b160a6efed6c
	github.com/paulmach/orb v0.1.6
	github.com/pkg/profile v1.5.0
	github.com/spf13/viper v1.7.1
	github.com/stretchr/testify v1.8.0
	github.com/tevjef/go-runtime-metrics v0.0.0-20170326170900-527a54029307
	github.com/tidwall/gjson v1.6.0
	github.com/vgarvardt/gue v1.0.2
	github.com/vgarvardt/gue/v4 v4.0.0
	gitlab.com/fieldkit/cloud/migrations/support v0.0.0
	gitlab.com/fieldkit/libraries/app-protocol v0.0.0-20240205194803-e3e032ad0353
	gitlab.com/fieldkit/libraries/data-protocol v0.0.0-20240205194926-13d5785bdcc5
	go.uber.org/zap v1.23.0
	goa.design/goa/v3 v3.2.4
	goa.design/plugins/v3 v3.1.1
	golang.org/x/crypto v0.0.0-20220829220503-c86fa9a7ed90
	golang.org/x/oauth2 v0.0.0-20210514164344-f6687ab2804c
)

replace gitlab.com/fieldkit/cloud/migrations/support => ../migrations/support

require (
	github.com/Microsoft/go-winio v0.5.0 // indirect
	github.com/armon/go-metrics v0.0.0-20180917152333-f0300d1749da // indirect
	github.com/beevik/etree v1.1.0 // indirect
	github.com/cpuguy83/go-md2man/v2 v2.0.0-20190314233015-f79a8a8ca69d // indirect
	github.com/crewjam/httperr v0.0.0-20190612203328-a946449404da // indirect
	github.com/dgrijalva/jwt-go/v4 v4.0.0-preview1 // indirect
	github.com/dimfeld/httppath v0.0.0-20170720192232-ee938bf73598 // indirect
	github.com/dimfeld/httptreemux v5.0.1+incompatible // indirect
	github.com/dimfeld/httptreemux/v5 v5.2.2 // indirect
	github.com/disintegration/gift v1.2.1 // indirect
	github.com/elgs/gosplitargs v0.0.0-20161028071935-a491c5eeb3c8 // indirect
	github.com/fatih/color v1.13.0 // indirect
	github.com/fsnotify/fsnotify v1.4.9 // indirect
	github.com/getkin/kin-openapi v0.61.0 // indirect
	github.com/git-chglog/git-chglog v0.0.0-20200414013904-db796966b373 // indirect
	github.com/go-logr/logr v1.2.3 // indirect
	github.com/go-logr/stdr v1.2.2 // indirect
	github.com/go-pg/pg/v10 v10.9.1 // indirect
	github.com/go-pg/zerochecker v0.2.0 // indirect
	github.com/go-resty/resty/v2 v2.3.0 // indirect
	github.com/golang/freetype v0.0.0-20161208064710-d9be45aaf745 // indirect
	github.com/hashicorp/errwrap v1.0.0 // indirect
	github.com/hashicorp/go-immutable-radix v1.0.0 // indirect
	github.com/hashicorp/golang-lru v0.5.1 // indirect
	github.com/hashicorp/hcl v1.0.0 // indirect
	github.com/imdario/mergo v0.3.8 // indirect
	github.com/itchyny/timefmt-go v0.1.3 // indirect
	github.com/jackc/pgio v1.0.0 // indirect
	github.com/jackc/pgpassfile v1.0.0 // indirect
	github.com/jackc/pgservicefile v0.0.0-20200714003250-2b9c44734f2b // indirect
	github.com/jackc/pgtype v1.12.0 // indirect
	github.com/jackc/puddle/v2 v2.0.0 // indirect
	github.com/jinzhu/inflection v1.0.0 // indirect
	github.com/jmespath/go-jmespath v0.4.0 // indirect
	github.com/jonboulle/clockwork v0.2.1 // indirect
	github.com/kballard/go-shellquote v0.0.0-20180428030007-95032a82bc51 // indirect
	github.com/llgcode/ps v0.0.0-20210114104736-f4b0c5d1e02e // indirect
	github.com/magiconair/properties v1.8.1 // indirect
	github.com/manveru/faker v0.0.0-20171103152722-9fbc68a78c4d // indirect
	github.com/mattn/go-colorable v0.1.9 // indirect
	github.com/mattn/go-isatty v0.0.14 // indirect
	github.com/mattn/go-sqlite3 v1.10.0 // indirect
	github.com/mattn/goveralls v0.0.6 // indirect
	github.com/mgutz/ansi v0.0.0-20170206155736-9520e82c474b // indirect
	github.com/mitchellh/mapstructure v1.1.2 // indirect
	github.com/nfnt/resize v0.0.0-20180221191011-83c6a9932646 // indirect
	github.com/paulmach/go.geojson v0.0.0-20170327170536-40612a87147b // indirect
	github.com/pelletier/go-toml v1.4.0 // indirect
	github.com/pkg/errors v0.9.1 // indirect
	github.com/pmezard/go-difflib v1.0.0 // indirect
	github.com/pquerna/cachecontrol v0.0.0-20201205024021-ac21108117ac // indirect
	github.com/robinjoseph08/go-pg-migrations/v3 v3.0.0 // indirect
	github.com/russellhaering/goxmldsig v1.1.0 // indirect
	github.com/russross/blackfriday/v2 v2.0.1 // indirect
	github.com/satori/go.uuid v1.2.1-0.20181028125025-b2ce2384e17b // indirect
	github.com/segmentio/ksuid v1.0.3 // indirect
	github.com/sergi/go-diff v1.1.0 // indirect
	github.com/shurcooL/sanitized_anchor_name v1.0.0 // indirect
	github.com/spf13/afero v1.1.2 // indirect
	github.com/spf13/cast v1.3.0 // indirect
	github.com/spf13/jwalterweatherman v1.0.0 // indirect
	github.com/spf13/pflag v1.0.5 // indirect
	github.com/subosito/gotenv v1.2.0 // indirect
	github.com/tidwall/match v1.0.1 // indirect
	github.com/tidwall/pretty v1.0.0 // indirect
	github.com/tmthrgd/go-hex v0.0.0-20190904060850-447a3041c3bc // indirect
	github.com/tsuyoshiwada/go-gitcmd v0.0.0-20180205145712-5f1f5f9475df // indirect
	github.com/urfave/cli v1.22.1 // indirect
	github.com/vgarvardt/backoff v1.0.0 // indirect
	github.com/vmihailenco/bufpool v0.1.11 // indirect
	github.com/vmihailenco/msgpack/v5 v5.3.0 // indirect
	github.com/vmihailenco/tagparser v0.1.2 // indirect
	github.com/vmihailenco/tagparser/v2 v2.0.0 // indirect
	github.com/zach-klippenstein/goregen v0.0.0-20160303162051-795b5e3961ea // indirect
	go.opentelemetry.io/otel v1.10.0 // indirect
	go.opentelemetry.io/otel/metric v0.32.0 // indirect
	go.opentelemetry.io/otel/trace v1.10.0 // indirect
	go.uber.org/atomic v1.9.0 // indirect
	go.uber.org/multierr v1.8.0 // indirect
	golang.org/x/image v0.0.0-20190802002840-cff245a6509b // indirect
	golang.org/x/mod v0.6.0-dev.0.20220106191415-9b9b3d81d5e3 // indirect
	golang.org/x/net v0.0.0-20220127200216-cd36cc0744dd // indirect
	golang.org/x/sync v0.0.0-20220601150217-0de741cfad7f // indirect
	golang.org/x/sys v0.0.0-20220412211240-33da011f77ad // indirect
	golang.org/x/text v0.3.7 // indirect
	golang.org/x/tools v0.1.10 // indirect
	golang.org/x/xerrors v0.0.0-20220411194840-2f41105eb62f // indirect
	google.golang.org/appengine v1.6.7 // indirect
	google.golang.org/protobuf v1.32.0 // indirect
	gopkg.in/AlecAivazis/survey.v1 v1.8.7 // indirect
	gopkg.in/ini.v1 v1.51.0 // indirect
	gopkg.in/kyokomi/emoji.v1 v1.5.1 // indirect
	gopkg.in/square/go-jose.v2 v2.5.1 // indirect
	gopkg.in/yaml.v2 v2.3.0 // indirect
	gopkg.in/yaml.v3 v3.0.1 // indirect
	mellium.im/sasl v0.2.1 // indirect
)
